{
    "type" : "Square",
    "point" : [0.0, 0.0, 0.0],
    "a" : [2.0, 0.0, 0.0],
    "b" : [0.0, 0.0, 1.0],
    //"normal" : [0.0, 1.0, 0.0], // optional
    "material" : {
        "type" : "Matte",
        "kd" : 1.0,
        "texture" : {
            "type" : "ConstantColor",
            "color" : [255, 128, 64]
        }
    }
}