{
    "type" : "ThinLens",
    "eye" : [-1, 0, 0],
    "lookAt" : [0, 0, 0],
    "up" : [0, 0, 1],
    "lensRadius" : 0.07,
    "imageDistance" : 0.25,
    "focusDistance" : 1.0,
    "sampler" : {
        "type" : "Jittered",
        "numSamples" : 64
    },
    "viewPlane" : {
        "resolution" : [512, 512],
        "pixelSize" : 0.0004,
        "gamma" : 1.0,
        "sampler" : {
            "type" : "Jittered",
            "numSamples" : 64
        }
    }
}