{
    "geometry" : {
        "objects" : [
        {
            "type" : "Cylinder",
            "position" : [0.0, 0.0, 0.0],
            "radius" : 0.5,
            "zMin" : 0.0,
            "zMax" : 0.25,
            "material" : {
                "type" : "GlossyReflective",
                // "type" : "Reflective",
                "ka" : 0.0, // optional, default: 1.0
                "kd" : 0.0, // optional, default: 1.0
                "cd" : [255, 255, 255], // optional, default: 0.0
                "ks" : 0.0, // optional, defaukt: 1.0
                "exp" : 5, // optional, default: 1.0
                "cs" : [255, 255, 255], // optional, default: 1.0
                "kr" : 0.5, // optional, default: 1.0
                "expr" : 100,
                "cr" : [255, 224, 192], // optional, default: 1.0
                "sampler" : {
                    "type" : "MultiJittered",
                    "numSamples" : 65536
                }
            }
        },
        {
            "type" : "Plane",
            "point" : [0.0, 0.0, 0.0],
            "normal" : [0.0, 0.0, 1.0],
            "material" : {
                "type" : "Matte",
                "kd" : 0.5,
                "texture" : {
                    "type" : "Grid2D",
                    "faceColor" : [192, 192, 192],
                    "edgeColor" : [64, 64, 64],
                    "faceSizeU" : 0.09,
                    "edgeSizeU" : 0.01,
                    "faceSizeV" : 0.09,
                    "edgeSizeV" : 0.01
                },
                "sampler" : {
                    "type" : "MultiJittered",
                    "numSamples" : 65536
                }
            }
        }
        ],
        "backgroundColor" : [0, 0, 0]
    },
    "camera" : {
        "type" : "ThinLens",
        "eye" : [-1.5, 0.5, 0.75],
        "lookAt" : [0.0, 0.0, 0.0],
        "up" : [0.0, 0.0, 1.0],
        "lensRadius" : 0.014,
        "imageDistance" : 0.0508,
        "focusDistance" : 1.68,
        "sampler" : {
            "type" : "MultiJittered",
            "numSamples" : 65536
        },
        "viewPlane" : {
            "resolution" : [512, 256],
            "pixelSize" : 0.0001,
            "gamma" : 1.0,
            "sampler" : {
                "type" : "MultiJittered",
                "numSamples" : 65536
            }
        }
    },
    "lights" : [
    {
        "type" : "AreaLight",
        "object" : {
            "type" : "Sphere",
            "radius" : 0.5,
            "position" : [-3.0, -4.0, 2.0],
            "material" : {
                "type" : "Emissive",
                "ls" : 300.0,
                "color" : 1.0
            },
            "sampler" : {
                "type" : "MultiJittered",
                "numSamples" : 65536
            }
        }
    }
    ],
    "tracer" : {
        "type" : "PathTracer",
        "maxDepth" : 4
    }
}
