{
    "geometry" : {
        "objects" : [
            {
                "type" : "Square",
                "point" : [2.0, -1.0, 0.0],
                "a" : [0.0, 0.0, 2.0],
                "b" : [0.0, 2.0, 0.0],
                "material" : {
                    "type" : "Matte",
                    "kd" : 1.2,
                    "texture" : {
                        "type" : "ConstantColor",
                        "color" : [255, 255, 255]
                    },
                    "sampler" : {
                        "type" : "MultiJittered",
                        "numSamples" : 100000
                    }
                }
            },
            {
                "type" : "Square",
                "point" : [0.0, -1.0, 0.0],
                "a" : [2.0, 0.0, 0.0],
                "b" : [0.0, 2.0, 0.0],
                "material" : {
                    "type" : "Matte",
                    "kd" : 1.2,
                    "texture" : {
                        "type" : "ConstantColor",
                        "color" : [255, 255, 255]
                    },
                    "sampler" : {
                        "type" : "MultiJittered",
                        "numSamples" : 100000
                    }
                }
            },
            {
                "type" : "Square",
                "point" : [0.0, -1.0, 2.0],
                "a" : [2.0, 0.0, 0.0],
                "b" : [0.0, 2.0, 0.0],
                "material" : {
                    "type" : "Matte",
                    "kd" : 1.2,
                    "texture" : {
                        "type" : "ConstantColor",
                        "color" : [255, 255, 255]
                    },
                    "sampler" : {
                        "type" : "MultiJittered",
                        "numSamples" : 100000
                    }
                }
            },
            {
                "type" : "Square",
                "point" : [0.0, 1.0, 0.0],
                "a" : [2.0, 0.0, 0.0],
                "b" : [0.0, 0.0, 2.0],
                "material" : {
                    "type" : "Matte",
                    "kd" : 1.2,
                    "texture" : {
                        "type" : "ConstantColor",
                        "color" : [255, 0, 0]
                    },
                    "sampler" : {
                        "type" : "MultiJittered",
                        "numSamples" : 100000
                    }
                }
            },
            {
                "type" : "Square",
                "point" : [0.0, -1.0, 0.0],
                "a" : [2.0, 0.0, 0.0],
                "b" : [0.0, 0.0, 2.0],
                "material" : {
                    "type" : "Matte",
                    "kd" : 1.2,
                    "texture" : {
                        "type" : "ConstantColor",
                        "color" : [0, 255, 0]
                    },
                    "sampler" : {
                        "type" : "MultiJittered",
                        "numSamples" : 100000
                    }
                }
            },
            {
                "type" : "Box",
                "v0" : [-0.3, -0.3, 0.0],
                "v1" : [0.3, 0.3, 1.25],
                "material" : {
                    "type" : "Matte",
                    "kd" : 1.2,
                    "texture" : {
                        "type" : "ConstantColor",
                        "color" : [255, 255, 255]
                    },
                    "sampler" : {
                        "type" : "MultiJittered",
                        "numSamples" : 100000
                    }
                },
                "transformation" : [
                    {
                        "zRotation" : 0.34906585039
                    },
                    {
                        "translation" : [1.3, 0.35, 0.0]
                    }
                ]
            },
            {
                "type" : "Box",
                "v0" : [-0.3, -0.3, 0.0],
                "v1" : [0.3, 0.3, 0.6],
                "material" : {
                    "type" : "Matte",
                    "kd" : 1.2,
                    "texture" : {
                        "type" : "ConstantColor",
                        "color" : [255, 255, 255]
                    },
                    "sampler" : {
                        "type" : "MultiJittered",
                        "numSamples" : 100000
                    }
                },
                "transformation" : [
                {
                    "zRotation" : -0.34906585039
                },
                {
                    "translation" : [0.8, -0.35, 0.0]
                }
                ]
            }
        ],
        "backgroundColor" : [0, 0, 0]
    },
    "camera" : {
        "type" : "ThinLens",
        "eye" : [-2.0, 0.0, 1.0],
        "lookAt" : [0.0, 0.0, 1.0],
        "up" : [0.0, 0.0, 1.0],
        "lensRadius" : 0.014,
        "imageDistance" : 0.0508,
        "focusDistance" : 3.0,
        "sampler" : {
            "type" : "MultiJittered",
            "numSamples" : 100000
        },
        "viewPlane" : {
            "resolution" : [512, 512],
            "pixelSize" : 0.000085,
            "gamma" : 1.0,
            "sampler" : {
                "type" : "MultiJittered",
                "numSamples" : 100000
            }
        }
    },
    "lights" : [
        {
            "type" : "AreaLight",
            "object" : {
                "type" : "Square",
                "point" : [1.2, 0.2, 1.999999],
                "a" : [0.0, -0.4, 0.0],
                "b" : [-0.4, 0.0, 0.0],
                "material" : {
                    "type" : "Emissive",
                    "ls" : 15.0,
                    "color" : 1.0
                },
                "sampler" : {
                    "type" : "MultiJittered",
                    "numSamples" : 100000
                }
            }
        }
    ],
    "tracer" : {
        "type" : "PathTracer",
        "maxDepth" : 5
    }
}
