{
    "geometry" : {
        "objects" : [
            {
                "type" : "Sphere",
                "position" : [0.125, -2.25, 0.125],
                "radius" : 0.002,
                "material" : {
                    "type" : "Phong",
                    "kd" : 2.4,
                    "ks" : 1.0,
                    "exp" : 20,
                    "texture" : {
                        "type" : "ConstantColor",
                        "color" : [255, 255, 255]
                    }
                }
            },
            {
                "type" : "Sphere",
                "position" : [0.0, -2.25, 0.125],
                "radius" : 0.002,
                "material" : {
                    "type" : "Phong",
                    "kd" : 2.4,
                    "ks" : 1.0,
                    "exp" : 20,
                    "texture" : {
                        "type" : "ConstantColor",
                        "color" : [255, 255, 255]
                    }
                }
            },
            {
                "type" : "Sphere",
                "position" : [-0.125, -2.25, 0.125],
                "radius" : 0.002,
                "material" : {
                    "type" : "Phong",
                    "kd" : 2.4,
                    "ks" : 1.0,
                    "exp" : 20,
                    "texture" : {
                        "type" : "ConstantColor",
                        "color" : [255, 255, 255]
                    }
                }
            },
            {
                "type" : "Sphere",
                "position" : [0.125, -2.25, 0.0],
                "radius" : 0.002,
                "material" : {
                    "type" : "Phong",
                    "kd" : 2.4,
                    "ks" : 1.0,
                    "exp" : 20,
                    "texture" : {
                        "type" : "ConstantColor",
                        "color" : [255, 255, 255]
                    }
                }
            },
            {
                "type" : "Sphere",
                "position" : [0.0, -2.25, 0.0],
                "radius" : 0.002,
                "material" : {
                    "type" : "Phong",
                    "kd" : 2.4,
                    "ks" : 1.0,
                    "exp" : 20,
                    "texture" : {
                        "type" : "ConstantColor",
                        "color" : [255, 255, 255]
                    }
                }
            },
            {
                "type" : "Sphere",
                "position" : [-0.125, -2.25, 0.0],
                "radius" : 0.002,
                "material" : {
                    "type" : "Phong",
                    "kd" : 2.4,
                    "ks" : 1.0,
                    "exp" : 20,
                    "texture" : {
                        "type" : "ConstantColor",
                        "color" : [255, 255, 255]
                    }
                }
            },
            {
                "type" : "Sphere",
                "position" : [0.125, -2.25, -0.125],
                "radius" : 0.002,
                "material" : {
                    "type" : "Phong",
                    "kd" : 2.4,
                    "ks" : 1.0,
                    "exp" : 20,
                    "texture" : {
                        "type" : "ConstantColor",
                        "color" : [255, 255, 255]
                    }
                }
            },
            {
                "type" : "Sphere",
                "position" : [0.0, -2.25, -0.125],
                "radius" : 0.002,
                "material" : {
                    "type" : "Phong",
                    "kd" : 2.4,
                    "ks" : 1.0,
                    "exp" : 20,
                    "texture" : {
                        "type" : "ConstantColor",
                        "color" : [255, 255, 255]
                    }
                }
            },
            {
                "type" : "Sphere",
                "position" : [-0.125, -2.25, -0.125],
                "radius" : 0.002,
                "material" : {
                    "type" : "Phong",
                    "kd" : 2.4,
                    "ks" : 1.0,
                    "exp" : 20,
                    "texture" : {
                        "type" : "ConstantColor",
                        "color" : [255, 255, 255]
                    }
                }
            }
        ],
        "backgroundColor" : [0, 0, 0]
    },
    "camera" : {
        "type" : "RealLensCamera",
        "eye" : [0.0, -3.0, 0.0],
        "lookAt" : [0.0, 0.0, 0.0],
        "up" : [0.0, 0.0, 1.0],
        "lensRadius" : 0.03,
        "imageDistance" : 0.0508,
        "focusDistance" : 3.0,
        "radius1"      : 0.2,
        "radius2"      : 0.2,
        "lensThickness": 0.005,
        "sampler" : {
            "type" : "MultiJittered",
            "numSamples" : 4096
        },
        "viewPlane" : {
            "resolution" : [512, 512],
            "pixelSize" : 0.000036,
            "gamma" : 1.0,
            "sampler" : {
                "type" : "MultiJittered",
                "numSamples" : 4096
            }
        }
    },
    "lights" : [
        {
            "type" : "PointLight",
            "position" : [0.0, -2.95, 0.0],
            "radianceScaling" : 50.0
        }
    ]
}