{
    "spectrumType" : "sampledSpectrum",
    "geometry" : {
        "objects" : [
            {
                "type" : "Plane",
                "point" : [0.0, 0.0, 0.0],
                "normal" : [0.0, 0.0, 1.0],
                "material" : {
                    "type" : "Matte",
                    "kd" : 2.4,
                    "texture" : {
                        "type" : "ConstantColor",
                        "color" : 0.5
                    }
                }
            },
            {
                "type" : "Cylinder",
                "position" : [1.500000, 0.000000, 5.5],
                "radius" : 0.1,
                "zMin" : 5.25,
                "zMax" : 5.75,
                "material" : {
                    "type" : "Matte",
                    "kd" : 1.0,
                    "texture" : {
                        "type" : "ConstantColor",
                        "color" : 0.0
                    }
                }
            },
            {
                "type" : "Cylinder",
                "position" : [1.467221, 0.311868, 5.5],
                "radius" : 0.1,
                "zMin" : 5.25,
                "zMax" : 5.75,
                "material" : {
                    "type" : "Matte",
                    "kd" : 1.0,
                    "texture" : {
                        "type" : "ConstantColor",
                        "color" : 0.0
                    }
                }
            },
            {
                "type" : "Cylinder",
                "position" : [1.370318, 0.610105, 5.5],
                "radius" : 0.1,
                "zMin" : 5.25,
                "zMax" : 5.75,
                "material" : {
                    "type" : "Matte",
                    "kd" : 1.0,
                    "texture" : {
                        "type" : "ConstantColor",
                        "color" : 0.0
                    }
                }
            },
            {
                "type" : "Cylinder",
                "position" : [1.213525, 0.881678, 5.5],
                "radius" : 0.1,
                "zMin" : 5.25,
                "zMax" : 5.75,
                "material" : {
                    "type" : "Matte",
                    "kd" : 1.0,
                    "texture" : {
                        "type" : "ConstantColor",
                        "color" : 0.0
                    }
                }
            },
            {
                "type" : "Cylinder",
                "position" : [1.003696, 1.114717, 5.5],
                "radius" : 0.1,
                "zMin" : 5.25,
                "zMax" : 5.75,
                "material" : {
                    "type" : "Matte",
                    "kd" : 1.0,
                    "texture" : {
                        "type" : "ConstantColor",
                        "color" : 0.0
                    }
                }
            },
            {
                "type" : "Cylinder",
                "position" : [0.750000, 1.299038, 5.5],
                "radius" : 0.1,
                "zMin" : 5.25,
                "zMax" : 5.75,
                "material" : {
                    "type" : "Matte",
                    "kd" : 1.0,
                    "texture" : {
                        "type" : "ConstantColor",
                        "color" : 0.0
                    }
                }
            },
            {
                "type" : "Cylinder",
                "position" : [0.463525, 1.426585, 5.5],
                "radius" : 0.1,
                "zMin" : 5.25,
                "zMax" : 5.75,
                "material" : {
                    "type" : "Matte",
                    "kd" : 1.0,
                    "texture" : {
                        "type" : "ConstantColor",
                        "color" : 0.0
                    }
                }
            },
            {
                "type" : "Cylinder",
                "position" : [0.156793, 1.491783, 5.5],
                "radius" : 0.1,
                "zMin" : 5.25,
                "zMax" : 5.75,
                "material" : {
                    "type" : "Matte",
                    "kd" : 1.0,
                    "texture" : {
                        "type" : "ConstantColor",
                        "color" : 0.0
                    }
                }
            },
            {
                "type" : "Cylinder",
                "position" : [-0.156793, 1.491783, 5.5],
                "radius" : 0.1,
                "zMin" : 5.25,
                "zMax" : 5.75,
                "material" : {
                    "type" : "Matte",
                    "kd" : 1.0,
                    "texture" : {
                        "type" : "ConstantColor",
                        "color" : 0.0
                    }
                }
            },
            {
                "type" : "Cylinder",
                "position" : [-0.463525, 1.426585, 5.5],
                "radius" : 0.1,
                "zMin" : 5.25,
                "zMax" : 5.75,
                "material" : {
                    "type" : "Matte",
                    "kd" : 1.0,
                    "texture" : {
                        "type" : "ConstantColor",
                        "color" : 0.0
                    }
                }
            },
            {
                "type" : "Cylinder",
                "position" : [-0.750000, 1.299038, 5.5],
                "radius" : 0.1,
                "zMin" : 5.25,
                "zMax" : 5.75,
                "material" : {
                    "type" : "Matte",
                    "kd" : 1.0,
                    "texture" : {
                        "type" : "ConstantColor",
                        "color" : 0.0
                    }
                }
            },
            {
                "type" : "Cylinder",
                "position" : [-1.003696, 1.114717, 5.5],
                "radius" : 0.1,
                "zMin" : 5.25,
                "zMax" : 5.75,
                "material" : {
                    "type" : "Matte",
                    "kd" : 1.0,
                    "texture" : {
                        "type" : "ConstantColor",
                        "color" : 0.0
                    }
                }
            },
            {
                "type" : "Cylinder",
                "position" : [-1.213525, 0.881678, 5.5],
                "radius" : 0.1,
                "zMin" : 5.25,
                "zMax" : 5.75,
                "material" : {
                    "type" : "Matte",
                    "kd" : 1.0,
                    "texture" : {
                        "type" : "ConstantColor",
                        "color" : 0.0
                    }
                }
            },
            {
                "type" : "Cylinder",
                "position" : [-1.370318, 0.610105, 5.5],
                "radius" : 0.1,
                "zMin" : 5.25,
                "zMax" : 5.75,
                "material" : {
                    "type" : "Matte",
                    "kd" : 1.0,
                    "texture" : {
                        "type" : "ConstantColor",
                        "color" : 0.0
                    }
                }
            },
            {
                "type" : "Cylinder",
                "position" : [-1.467221, 0.311868, 5.5],
                "radius" : 0.1,
                "zMin" : 5.25,
                "zMax" : 5.75,
                "material" : {
                    "type" : "Matte",
                    "kd" : 1.0,
                    "texture" : {
                        "type" : "ConstantColor",
                        "color" : 0.0
                    }
                }
            },
            {
                "type" : "Cylinder",
                "position" : [-1.500000, 0.000000, 5.5],
                "radius" : 0.1,
                "zMin" : 5.25,
                "zMax" : 5.75,
                "material" : {
                    "type" : "Matte",
                    "kd" : 1.0,
                    "texture" : {
                        "type" : "ConstantColor",
                        "color" : 0.0
                    }
                }
            },
            {
                "type" : "Cylinder",
                "position" : [-1.467221, -0.311868, 5.5],
                "radius" : 0.1,
                "zMin" : 5.25,
                "zMax" : 5.75,
                "material" : {
                    "type" : "Matte",
                    "kd" : 1.0,
                    "texture" : {
                        "type" : "ConstantColor",
                        "color" : 0.0
                    }
                }
            },
            {
                "type" : "Cylinder",
                "position" : [-1.370318, -0.610105, 5.5],
                "radius" : 0.1,
                "zMin" : 5.25,
                "zMax" : 5.75,
                "material" : {
                    "type" : "Matte",
                    "kd" : 1.0,
                    "texture" : {
                        "type" : "ConstantColor",
                        "color" : 0.0
                    }
                }
            },
            {
                "type" : "Cylinder",
                "position" : [-1.213525, -0.881678, 5.5],
                "radius" : 0.1,
                "zMin" : 5.25,
                "zMax" : 5.75,
                "material" : {
                    "type" : "Matte",
                    "kd" : 1.0,
                    "texture" : {
                        "type" : "ConstantColor",
                        "color" : 0.0
                    }
                }
            },
            {
                "type" : "Cylinder",
                "position" : [-1.003696, -1.114717, 5.5],
                "radius" : 0.1,
                "zMin" : 5.25,
                "zMax" : 5.75,
                "material" : {
                    "type" : "Matte",
                    "kd" : 1.0,
                    "texture" : {
                        "type" : "ConstantColor",
                        "color" : 0.0
                    }
                }
            },
            {
                "type" : "Cylinder",
                "position" : [-0.750000, -1.299038, 5.5],
                "radius" : 0.1,
                "zMin" : 5.25,
                "zMax" : 5.75,
                "material" : {
                    "type" : "Matte",
                    "kd" : 1.0,
                    "texture" : {
                        "type" : "ConstantColor",
                        "color" : 0.0
                    }
                }
            },
            {
                "type" : "Cylinder",
                "position" : [-0.463525, -1.426585, 5.5],
                "radius" : 0.1,
                "zMin" : 5.25,
                "zMax" : 5.75,
                "material" : {
                    "type" : "Matte",
                    "kd" : 1.0,
                    "texture" : {
                        "type" : "ConstantColor",
                        "color" : 0.0
                    }
                }
            },
            {
                "type" : "Cylinder",
                "position" : [-0.156793, -1.491783, 5.5],
                "radius" : 0.1,
                "zMin" : 5.25,
                "zMax" : 5.75,
                "material" : {
                    "type" : "Matte",
                    "kd" : 1.0,
                    "texture" : {
                        "type" : "ConstantColor",
                        "color" : 0.0
                    }
                }
            },
            {
                "type" : "Cylinder",
                "position" : [0.156793, -1.491783, 5.5],
                "radius" : 0.1,
                "zMin" : 5.25,
                "zMax" : 5.75,
                "material" : {
                    "type" : "Matte",
                    "kd" : 1.0,
                    "texture" : {
                        "type" : "ConstantColor",
                        "color" : 0.0
                    }
                }
            },
            {
                "type" : "Cylinder",
                "position" : [0.463525, -1.426585, 5.5],
                "radius" : 0.1,
                "zMin" : 5.25,
                "zMax" : 5.75,
                "material" : {
                    "type" : "Matte",
                    "kd" : 1.0,
                    "texture" : {
                        "type" : "ConstantColor",
                        "color" : 0.0
                    }
                }
            },
            {
                "type" : "Cylinder",
                "position" : [0.750000, -1.299038, 5.5],
                "radius" : 0.1,
                "zMin" : 5.25,
                "zMax" : 5.75,
                "material" : {
                    "type" : "Matte",
                    "kd" : 1.0,
                    "texture" : {
                        "type" : "ConstantColor",
                        "color" : 0.0
                    }
                }
            },
            {
                "type" : "Cylinder",
                "position" : [1.003696, -1.114717, 5.5],
                "radius" : 0.1,
                "zMin" : 5.25,
                "zMax" : 5.75,
                "material" : {
                    "type" : "Matte",
                    "kd" : 1.0,
                    "texture" : {
                        "type" : "ConstantColor",
                        "color" : 0.0
                    }
                }
            },
            {
                "type" : "Cylinder",
                "position" : [1.213525, -0.881678, 5.5],
                "radius" : 0.1,
                "zMin" : 5.25,
                "zMax" : 5.75,
                "material" : {
                    "type" : "Matte",
                    "kd" : 1.0,
                    "texture" : {
                        "type" : "ConstantColor",
                        "color" : 0.0
                    }
                }
            },
            {
                "type" : "Cylinder",
                "position" : [1.370318, -0.610105, 5.5],
                "radius" : 0.1,
                "zMin" : 5.25,
                "zMax" : 5.75,
                "material" : {
                    "type" : "Matte",
                    "kd" : 1.0,
                    "texture" : {
                        "type" : "ConstantColor",
                        "color" : 0.0
                    }
                }
            },
            {
                "type" : "Cylinder",
                "position" : [1.467221, -0.311868, 5.5],
                "radius" : 0.1,
                "zMin" : 5.25,
                "zMax" : 5.75,
                "material" : {
                    "type" : "Matte",
                    "kd" : 1.0,
                    "texture" : {
                        "type" : "ConstantColor",
                        "color" : 0.0
                    }
                }
            }
        ],
        "backgroundColor" : [0, 0, 0]
    },
    "camera" : {
        "type" : "ThinLens",
        "eye" : [0.0, 0.0, 10.0],
        "lookAt" : [0.0, 0.0, 0.0],
        "up" : [1.0, 0.0, 0.0],
        "lensRadius" : 0.014,
        "imageDistance" : 0.0508,
        "focusDistance" : 10.0,
        "sampler" : {
            "type" : "Regular",
            "numSamples" : 4
        },
        "viewPlane" : {
            "resolution" : [512, 512],
            "pixelSize" : 0.000036,
            "gamma" : 1.0,
            "sampler" : {
                "type" : "Regular",
                "numSamples" : 4
            }
        }
    },
    "lights" : [
        {
            "type" : "PointLight",
                "position" : [1.500000, 0.000000, 5.5],
            "radianceScaling" : 5.5,
            "color" : {
                "lambda" : [405, 415, 425, 435, 445, 455, 465, 475, 485, 495, 505, 515, 525, 535, 545, 555, 565, 575, 585, 595, 605, 615, 625, 635, 645, 655, 665, 675, 685, 695],
                "value" : [1.0, 0.0, 0.0, 0.0, 0.0, 0.0, 0.0, 0.0, 0.0, 0.0, 0.0, 0.0, 0.0, 0.0, 0.0, 0.0, 0.0, 0.0, 0.0, 0.0, 0.0, 0.0, 0.0, 0.0, 0.0, 0.0, 0.0, 0.0, 0.0, 0.0]
            }
        },
        {
            "type" : "PointLight",
                "position" : [1.467221, 0.311868, 5.5],
            "radianceScaling" : 5.5,
            "color" : {
                "lambda" : [405, 415, 425, 435, 445, 455, 465, 475, 485, 495, 505, 515, 525, 535, 545, 555, 565, 575, 585, 595, 605, 615, 625, 635, 645, 655, 665, 675, 685, 695],
                "value" : [0.0, 1.0, 0.0, 0.0, 0.0, 0.0, 0.0, 0.0, 0.0, 0.0, 0.0, 0.0, 0.0, 0.0, 0.0, 0.0, 0.0, 0.0, 0.0, 0.0, 0.0, 0.0, 0.0, 0.0, 0.0, 0.0, 0.0, 0.0, 0.0, 0.0]
            }
        },
        {
            "type" : "PointLight",
                "position" : [1.370318, 0.610105, 5.5],
            "radianceScaling" : 5.5,
            "color" : {
                "lambda" : [405, 415, 425, 435, 445, 455, 465, 475, 485, 495, 505, 515, 525, 535, 545, 555, 565, 575, 585, 595, 605, 615, 625, 635, 645, 655, 665, 675, 685, 695],
                "value" : [0.0, 0.0, 1.0, 0.0, 0.0, 0.0, 0.0, 0.0, 0.0, 0.0, 0.0, 0.0, 0.0, 0.0, 0.0, 0.0, 0.0, 0.0, 0.0, 0.0, 0.0, 0.0, 0.0, 0.0, 0.0, 0.0, 0.0, 0.0, 0.0, 0.0]
            }
        },
        {
            "type" : "PointLight",
                "position" : [1.213525, 0.881678, 5.5],
            "radianceScaling" : 5.5,
            "color" : {
                "lambda" : [405, 415, 425, 435, 445, 455, 465, 475, 485, 495, 505, 515, 525, 535, 545, 555, 565, 575, 585, 595, 605, 615, 625, 635, 645, 655, 665, 675, 685, 695],
                "value" : [0.0, 0.0, 0.0, 1.0, 0.0, 0.0, 0.0, 0.0, 0.0, 0.0, 0.0, 0.0, 0.0, 0.0, 0.0, 0.0, 0.0, 0.0, 0.0, 0.0, 0.0, 0.0, 0.0, 0.0, 0.0, 0.0, 0.0, 0.0, 0.0, 0.0]
            }
        },
        {
            "type" : "PointLight",
                "position" : [1.003696, 1.114717, 5.5],
            "radianceScaling" : 5.5,
            "color" : {
                "lambda" : [405, 415, 425, 435, 445, 455, 465, 475, 485, 495, 505, 515, 525, 535, 545, 555, 565, 575, 585, 595, 605, 615, 625, 635, 645, 655, 665, 675, 685, 695],
                "value" : [0.0, 0.0, 0.0, 0.0, 1.0, 0.0, 0.0, 0.0, 0.0, 0.0, 0.0, 0.0, 0.0, 0.0, 0.0, 0.0, 0.0, 0.0, 0.0, 0.0, 0.0, 0.0, 0.0, 0.0, 0.0, 0.0, 0.0, 0.0, 0.0, 0.0]
            }
        },
        {
            "type" : "PointLight",
                "position" : [0.750000, 1.299038, 5.5],
            "radianceScaling" : 5.5,
            "color" : {
                "lambda" : [405, 415, 425, 435, 445, 455, 465, 475, 485, 495, 505, 515, 525, 535, 545, 555, 565, 575, 585, 595, 605, 615, 625, 635, 645, 655, 665, 675, 685, 695],
                "value" : [0.0, 0.0, 0.0, 0.0, 0.0, 1.0, 0.0, 0.0, 0.0, 0.0, 0.0, 0.0, 0.0, 0.0, 0.0, 0.0, 0.0, 0.0, 0.0, 0.0, 0.0, 0.0, 0.0, 0.0, 0.0, 0.0, 0.0, 0.0, 0.0, 0.0]
            }
        },
        {
            "type" : "PointLight",
                "position" : [0.463525, 1.426585, 5.5],
            "radianceScaling" : 5.5,
            "color" : {
                "lambda" : [405, 415, 425, 435, 445, 455, 465, 475, 485, 495, 505, 515, 525, 535, 545, 555, 565, 575, 585, 595, 605, 615, 625, 635, 645, 655, 665, 675, 685, 695],
                "value" : [0.0, 0.0, 0.0, 0.0, 0.0, 0.0, 1.0, 0.0, 0.0, 0.0, 0.0, 0.0, 0.0, 0.0, 0.0, 0.0, 0.0, 0.0, 0.0, 0.0, 0.0, 0.0, 0.0, 0.0, 0.0, 0.0, 0.0, 0.0, 0.0, 0.0]
            }
        },
        {
            "type" : "PointLight",
                "position" : [0.156793, 1.491783, 5.5],
            "radianceScaling" : 5.5,
            "color" : {
                "lambda" : [405, 415, 425, 435, 445, 455, 465, 475, 485, 495, 505, 515, 525, 535, 545, 555, 565, 575, 585, 595, 605, 615, 625, 635, 645, 655, 665, 675, 685, 695],
                "value" : [0.0, 0.0, 0.0, 0.0, 0.0, 0.0, 0.0, 1.0, 0.0, 0.0, 0.0, 0.0, 0.0, 0.0, 0.0, 0.0, 0.0, 0.0, 0.0, 0.0, 0.0, 0.0, 0.0, 0.0, 0.0, 0.0, 0.0, 0.0, 0.0, 0.0]
            }
        },
        {
            "type" : "PointLight",
                "position" : [-0.156793, 1.491783, 5.5],
            "radianceScaling" : 5.5,
            "color" : {
                "lambda" : [405, 415, 425, 435, 445, 455, 465, 475, 485, 495, 505, 515, 525, 535, 545, 555, 565, 575, 585, 595, 605, 615, 625, 635, 645, 655, 665, 675, 685, 695],
                "value" : [0.0, 0.0, 0.0, 0.0, 0.0, 0.0, 0.0, 0.0, 1.0, 0.0, 0.0, 0.0, 0.0, 0.0, 0.0, 0.0, 0.0, 0.0, 0.0, 0.0, 0.0, 0.0, 0.0, 0.0, 0.0, 0.0, 0.0, 0.0, 0.0, 0.0]
            }
        },
        {
            "type" : "PointLight",
                "position" : [-0.463525, 1.426585, 5.5],
            "radianceScaling" : 5.5,
            "color" : {
                "lambda" : [405, 415, 425, 435, 445, 455, 465, 475, 485, 495, 505, 515, 525, 535, 545, 555, 565, 575, 585, 595, 605, 615, 625, 635, 645, 655, 665, 675, 685, 695],
                "value" : [0.0, 0.0, 0.0, 0.0, 0.0, 0.0, 0.0, 0.0, 0.0, 1.0, 0.0, 0.0, 0.0, 0.0, 0.0, 0.0, 0.0, 0.0, 0.0, 0.0, 0.0, 0.0, 0.0, 0.0, 0.0, 0.0, 0.0, 0.0, 0.0, 0.0]
            }
        },
        {
            "type" : "PointLight",
                "position" : [-0.750000, 1.299038, 5.5],
            "radianceScaling" : 5.5,
            "color" : {
                "lambda" : [405, 415, 425, 435, 445, 455, 465, 475, 485, 495, 505, 515, 525, 535, 545, 555, 565, 575, 585, 595, 605, 615, 625, 635, 645, 655, 665, 675, 685, 695],
                "value" : [0.0, 0.0, 0.0, 0.0, 0.0, 0.0, 0.0, 0.0, 0.0, 0.0, 1.0, 0.0, 0.0, 0.0, 0.0, 0.0, 0.0, 0.0, 0.0, 0.0, 0.0, 0.0, 0.0, 0.0, 0.0, 0.0, 0.0, 0.0, 0.0, 0.0]
            }
        },
        {
            "type" : "PointLight",
                "position" : [-1.003696, 1.114717, 5.5],
            "radianceScaling" : 5.5,
            "color" : {
                "lambda" : [405, 415, 425, 435, 445, 455, 465, 475, 485, 495, 505, 515, 525, 535, 545, 555, 565, 575, 585, 595, 605, 615, 625, 635, 645, 655, 665, 675, 685, 695],
                "value" : [0.0, 0.0, 0.0, 0.0, 0.0, 0.0, 0.0, 0.0, 0.0, 0.0, 0.0, 1.0, 0.0, 0.0, 0.0, 0.0, 0.0, 0.0, 0.0, 0.0, 0.0, 0.0, 0.0, 0.0, 0.0, 0.0, 0.0, 0.0, 0.0, 0.0]
            }
        },
        {
            "type" : "PointLight",
                "position" : [-1.213525, 0.881678, 5.5],
            "radianceScaling" : 5.5,
            "color" : {
                "lambda" : [405, 415, 425, 435, 445, 455, 465, 475, 485, 495, 505, 515, 525, 535, 545, 555, 565, 575, 585, 595, 605, 615, 625, 635, 645, 655, 665, 675, 685, 695],
                "value" : [0.0, 0.0, 0.0, 0.0, 0.0, 0.0, 0.0, 0.0, 0.0, 0.0, 0.0, 0.0, 1.0, 0.0, 0.0, 0.0, 0.0, 0.0, 0.0, 0.0, 0.0, 0.0, 0.0, 0.0, 0.0, 0.0, 0.0, 0.0, 0.0, 0.0]
            }
        },
        {
            "type" : "PointLight",
                "position" : [-1.370318, 0.610105, 5.5],
            "radianceScaling" : 5.5,
            "color" : {
                "lambda" : [405, 415, 425, 435, 445, 455, 465, 475, 485, 495, 505, 515, 525, 535, 545, 555, 565, 575, 585, 595, 605, 615, 625, 635, 645, 655, 665, 675, 685, 695],
                "value" : [0.0, 0.0, 0.0, 0.0, 0.0, 0.0, 0.0, 0.0, 0.0, 0.0, 0.0, 0.0, 0.0, 1.0, 0.0, 0.0, 0.0, 0.0, 0.0, 0.0, 0.0, 0.0, 0.0, 0.0, 0.0, 0.0, 0.0, 0.0, 0.0, 0.0]
            }
        },
        {
            "type" : "PointLight",
                "position" : [-1.467221, 0.311868, 5.5],
            "radianceScaling" : 5.5,
            "color" : {
                "lambda" : [405, 415, 425, 435, 445, 455, 465, 475, 485, 495, 505, 515, 525, 535, 545, 555, 565, 575, 585, 595, 605, 615, 625, 635, 645, 655, 665, 675, 685, 695],
                "value" : [0.0, 0.0, 0.0, 0.0, 0.0, 0.0, 0.0, 0.0, 0.0, 0.0, 0.0, 0.0, 0.0, 0.0, 1.0, 0.0, 0.0, 0.0, 0.0, 0.0, 0.0, 0.0, 0.0, 0.0, 0.0, 0.0, 0.0, 0.0, 0.0, 0.0]
            }
        },
        {
            "type" : "PointLight",
                "position" : [-1.500000, 0.000000, 5.5],
            "radianceScaling" : 5.5,
            "color" : {
                "lambda" : [405, 415, 425, 435, 445, 455, 465, 475, 485, 495, 505, 515, 525, 535, 545, 555, 565, 575, 585, 595, 605, 615, 625, 635, 645, 655, 665, 675, 685, 695],
                "value" : [0.0, 0.0, 0.0, 0.0, 0.0, 0.0, 0.0, 0.0, 0.0, 0.0, 0.0, 0.0, 0.0, 0.0, 0.0, 1.0, 0.0, 0.0, 0.0, 0.0, 0.0, 0.0, 0.0, 0.0, 0.0, 0.0, 0.0, 0.0, 0.0, 0.0]
            }
        },
        {
            "type" : "PointLight",
                "position" : [-1.467221, -0.311868, 5.5],
            "radianceScaling" : 5.5,
            "color" : {
                "lambda" : [405, 415, 425, 435, 445, 455, 465, 475, 485, 495, 505, 515, 525, 535, 545, 555, 565, 575, 585, 595, 605, 615, 625, 635, 645, 655, 665, 675, 685, 695],
                "value" : [0.0, 0.0, 0.0, 0.0, 0.0, 0.0, 0.0, 0.0, 0.0, 0.0, 0.0, 0.0, 0.0, 0.0, 0.0, 0.0, 1.0, 0.0, 0.0, 0.0, 0.0, 0.0, 0.0, 0.0, 0.0, 0.0, 0.0, 0.0, 0.0, 0.0]
            }
        },
        {
            "type" : "PointLight",
                "position" : [-1.370318, -0.610105, 5.5],
            "radianceScaling" : 5.5,
            "color" : {
                "lambda" : [405, 415, 425, 435, 445, 455, 465, 475, 485, 495, 505, 515, 525, 535, 545, 555, 565, 575, 585, 595, 605, 615, 625, 635, 645, 655, 665, 675, 685, 695],
                "value" : [0.0, 0.0, 0.0, 0.0, 0.0, 0.0, 0.0, 0.0, 0.0, 0.0, 0.0, 0.0, 0.0, 0.0, 0.0, 0.0, 0.0, 1.0, 0.0, 0.0, 0.0, 0.0, 0.0, 0.0, 0.0, 0.0, 0.0, 0.0, 0.0, 0.0]
            }
        },
        {
            "type" : "PointLight",
                "position" : [-1.213525, -0.881678, 5.5],
            "radianceScaling" : 5.5,
            "color" : {
                "lambda" : [405, 415, 425, 435, 445, 455, 465, 475, 485, 495, 505, 515, 525, 535, 545, 555, 565, 575, 585, 595, 605, 615, 625, 635, 645, 655, 665, 675, 685, 695],
                "value" : [0.0, 0.0, 0.0, 0.0, 0.0, 0.0, 0.0, 0.0, 0.0, 0.0, 0.0, 0.0, 0.0, 0.0, 0.0, 0.0, 0.0, 0.0, 1.0, 0.0, 0.0, 0.0, 0.0, 0.0, 0.0, 0.0, 0.0, 0.0, 0.0, 0.0]
            }
        },
        {
            "type" : "PointLight",
                "position" : [-1.003696, -1.114717, 5.5],
            "radianceScaling" : 5.5,
            "color" : {
                "lambda" : [405, 415, 425, 435, 445, 455, 465, 475, 485, 495, 505, 515, 525, 535, 545, 555, 565, 575, 585, 595, 605, 615, 625, 635, 645, 655, 665, 675, 685, 695],
                "value" : [0.0, 0.0, 0.0, 0.0, 0.0, 0.0, 0.0, 0.0, 0.0, 0.0, 0.0, 0.0, 0.0, 0.0, 0.0, 0.0, 0.0, 0.0, 0.0, 1.0, 0.0, 0.0, 0.0, 0.0, 0.0, 0.0, 0.0, 0.0, 0.0, 0.0]
            }
        },
        {
            "type" : "PointLight",
                "position" : [-0.750000, -1.299038, 5.5],
            "radianceScaling" : 5.5,
            "color" : {
                "lambda" : [405, 415, 425, 435, 445, 455, 465, 475, 485, 495, 505, 515, 525, 535, 545, 555, 565, 575, 585, 595, 605, 615, 625, 635, 645, 655, 665, 675, 685, 695],
                "value" : [0.0, 0.0, 0.0, 0.0, 0.0, 0.0, 0.0, 0.0, 0.0, 0.0, 0.0, 0.0, 0.0, 0.0, 0.0, 0.0, 0.0, 0.0, 0.0, 0.0, 1.0, 0.0, 0.0, 0.0, 0.0, 0.0, 0.0, 0.0, 0.0, 0.0]
            }
        },
        {
            "type" : "PointLight",
                "position" : [-0.463525, -1.426585, 5.5],
            "radianceScaling" : 5.5,
            "color" : {
                "lambda" : [405, 415, 425, 435, 445, 455, 465, 475, 485, 495, 505, 515, 525, 535, 545, 555, 565, 575, 585, 595, 605, 615, 625, 635, 645, 655, 665, 675, 685, 695],
                "value" : [0.0, 0.0, 0.0, 0.0, 0.0, 0.0, 0.0, 0.0, 0.0, 0.0, 0.0, 0.0, 0.0, 0.0, 0.0, 0.0, 0.0, 0.0, 0.0, 0.0, 0.0, 1.0, 0.0, 0.0, 0.0, 0.0, 0.0, 0.0, 0.0, 0.0]
            }
        },
        {
            "type" : "PointLight",
                "position" : [-0.156793, -1.491783, 5.5],
            "radianceScaling" : 5.5,
            "color" : {
                "lambda" : [405, 415, 425, 435, 445, 455, 465, 475, 485, 495, 505, 515, 525, 535, 545, 555, 565, 575, 585, 595, 605, 615, 625, 635, 645, 655, 665, 675, 685, 695],
                "value" : [0.0, 0.0, 0.0, 0.0, 0.0, 0.0, 0.0, 0.0, 0.0, 0.0, 0.0, 0.0, 0.0, 0.0, 0.0, 0.0, 0.0, 0.0, 0.0, 0.0, 0.0, 0.0, 1.0, 0.0, 0.0, 0.0, 0.0, 0.0, 0.0, 0.0]
            }
        },
        {
            "type" : "PointLight",
                "position" : [0.156793, -1.491783, 5.5],
            "radianceScaling" : 5.5,
            "color" : {
                "lambda" : [405, 415, 425, 435, 445, 455, 465, 475, 485, 495, 505, 515, 525, 535, 545, 555, 565, 575, 585, 595, 605, 615, 625, 635, 645, 655, 665, 675, 685, 695],
                "value" : [0.0, 0.0, 0.0, 0.0, 0.0, 0.0, 0.0, 0.0, 0.0, 0.0, 0.0, 0.0, 0.0, 0.0, 0.0, 0.0, 0.0, 0.0, 0.0, 0.0, 0.0, 0.0, 0.0, 1.0, 0.0, 0.0, 0.0, 0.0, 0.0, 0.0]
            }
        },
        {
            "type" : "PointLight",
                "position" : [0.463525, -1.426585, 5.5],
            "radianceScaling" : 5.5,
            "color" : {
                "lambda" : [405, 415, 425, 435, 445, 455, 465, 475, 485, 495, 505, 515, 525, 535, 545, 555, 565, 575, 585, 595, 605, 615, 625, 635, 645, 655, 665, 675, 685, 695],
                "value" : [0.0, 0.0, 0.0, 0.0, 0.0, 0.0, 0.0, 0.0, 0.0, 0.0, 0.0, 0.0, 0.0, 0.0, 0.0, 0.0, 0.0, 0.0, 0.0, 0.0, 0.0, 0.0, 0.0, 0.0, 1.0, 0.0, 0.0, 0.0, 0.0, 0.0]
            }
        },
        {
            "type" : "PointLight",
                "position" : [0.750000, -1.299038, 5.5],
            "radianceScaling" : 5.5,
            "color" : {
                "lambda" : [405, 415, 425, 435, 445, 455, 465, 475, 485, 495, 505, 515, 525, 535, 545, 555, 565, 575, 585, 595, 605, 615, 625, 635, 645, 655, 665, 675, 685, 695],
                "value" : [0.0, 0.0, 0.0, 0.0, 0.0, 0.0, 0.0, 0.0, 0.0, 0.0, 0.0, 0.0, 0.0, 0.0, 0.0, 0.0, 0.0, 0.0, 0.0, 0.0, 0.0, 0.0, 0.0, 0.0, 0.0, 1.0, 0.0, 0.0, 0.0, 0.0]
            }
        },
        {
            "type" : "PointLight",
                "position" : [1.003696, -1.114717, 5.5],
            "radianceScaling" : 5.5,
            "color" : {
                "lambda" : [405, 415, 425, 435, 445, 455, 465, 475, 485, 495, 505, 515, 525, 535, 545, 555, 565, 575, 585, 595, 605, 615, 625, 635, 645, 655, 665, 675, 685, 695],
                "value" : [0.0, 0.0, 0.0, 0.0, 0.0, 0.0, 0.0, 0.0, 0.0, 0.0, 0.0, 0.0, 0.0, 0.0, 0.0, 0.0, 0.0, 0.0, 0.0, 0.0, 0.0, 0.0, 0.0, 0.0, 0.0, 0.0, 1.0, 0.0, 0.0, 0.0]
            }
        },
        {
            "type" : "PointLight",
                "position" : [1.213525, -0.881678, 5.5],
            "radianceScaling" : 5.5,
            "color" : {
                "lambda" : [405, 415, 425, 435, 445, 455, 465, 475, 485, 495, 505, 515, 525, 535, 545, 555, 565, 575, 585, 595, 605, 615, 625, 635, 645, 655, 665, 675, 685, 695],
                "value" : [0.0, 0.0, 0.0, 0.0, 0.0, 0.0, 0.0, 0.0, 0.0, 0.0, 0.0, 0.0, 0.0, 0.0, 0.0, 0.0, 0.0, 0.0, 0.0, 0.0, 0.0, 0.0, 0.0, 0.0, 0.0, 0.0, 0.0, 1.0, 0.0, 0.0]
            }
        },
        {
            "type" : "PointLight",
                "position" : [1.370318, -0.610105, 5.5],
            "radianceScaling" : 5.5,
            "color" : {
                "lambda" : [405, 415, 425, 435, 445, 455, 465, 475, 485, 495, 505, 515, 525, 535, 545, 555, 565, 575, 585, 595, 605, 615, 625, 635, 645, 655, 665, 675, 685, 695],
                "value" : [0.0, 0.0, 0.0, 0.0, 0.0, 0.0, 0.0, 0.0, 0.0, 0.0, 0.0, 0.0, 0.0, 0.0, 0.0, 0.0, 0.0, 0.0, 0.0, 0.0, 0.0, 0.0, 0.0, 0.0, 0.0, 0.0, 0.0, 0.0, 1.0, 0.0]
            }
        },
        {
            "type" : "PointLight",
                "position" : [1.467221, -0.311868, 5.5],
            "radianceScaling" : 5.5,
            "color" : {
                "lambda" : [405, 415, 425, 435, 445, 455, 465, 475, 485, 495, 505, 515, 525, 535, 545, 555, 565, 575, 585, 595, 605, 615, 625, 635, 645, 655, 665, 675, 685, 695],
                "value" : [0.0, 0.0, 0.0, 0.0, 0.0, 0.0, 0.0, 0.0, 0.0, 0.0, 0.0, 0.0, 0.0, 0.0, 0.0, 0.0, 0.0, 0.0, 0.0, 0.0, 0.0, 0.0, 0.0, 0.0, 0.0, 0.0, 0.0, 0.0, 0.0, 1.0]
            }
        }
    ]
}
