{
    "geometry" : {
        "objects" : [
            {
                "type" : "Sphere",
                "position" : [0.0, 0.0, 0.5],
                "radius" : 0.5,
                "material" : {
                    "type" : "Matte",
                    "kd" : 2.4,
                    "texture" : {
                        "type" : "ConstantColor",
                        "color" : [255, 128, 64]
                    }
                }
            },
            {
                "type" : "Plane",
                "point" : [0.0, 0.0, 0.0],
                "normal" : [0.0, 0.0, 1.0],
                "material" : {
                    "type" : "Matte",
                    "kd" : 1.0,
                    "texture" : {
                        "type" : "Checker2D",
                        "sizeU" : 1.0,
                        "sizeV" : 1.0,
                        "color1" : [192, 192, 192],
                        "color2" : [64, 64, 64]
                    }
                }
            }
        ],
        "backgroundColor" : [0, 0, 0]
    },
    "camera" : {
        "type" : "ThinLens",
        "eye" : [-5.0, 0.0, 0.5],
        "lookAt" : [0.0, 0.0, 0.5],
        "up" : [0.0, 0.0, 1.0],
        "lensRadius" : 0.014,
        "imageDistance" : 0.0508,
        "focusDistance" : 5.0,
        "sampler" : {
            "type" : "Regular",
            "numSamples" : 4
        },
        "viewPlane" : {
            "resolution" : [512, 512],
            "pixelSize" : 0.000036,
            "gamma" : 1.0,
            "sampler" : {
                "type" : "Regular",
                "numSamples" : 4
            }
        }
    },
    "lights" : [
        {
            "type" : "PointLight",
            "position" : [-3.0, 1.0, 2.0],
            "radianceScaling" : 2.5
        }
    ]//,
    // "spectrumType" : "SampledSpectrum", // optional
    // "lightSpectralType" : "Illumination",
    // "materialSpectralType" : "Illumination"
}
